-0.4096,-0.2425,0.8198
0.0437,-0.4724,1.717
-0.6513,-0.2464,0.9286
0.2369,-0.3396,1.850
-0.7122,-0.2297,0.7299
0.0727,-0.2395,1.940
-0.5701,-0.2296,0.6197
-0.0824,-0.3026,1.875
-0.3758,-0.2405,0.7928
0.0055,-0.4906,1.703
-0.2868,-0.2386,0.3448
-0.4445,-0.4331,1.764

