<?xml version="1.0" ?>
<!-- =================================================================================== -->
<!-- |    This document was autogenerated by xacro from /home/corinaba/catkin_ws/src/kraft_whoi/droplab_kraftarm/src/kraft_arm_description/robot/g500ARM5MINI.urdf.xacro | -->
<!-- |    EDITING THIS FILE BY HAND IS NOT RECOMMENDED                                 | -->
<!-- =================================================================================== -->
<robot name="nhtKraft" xmlns:xacro="http://www.ros.org/wiki/xacro">
  <link
    name="Base">
    <visual>
      <origin
        xyz="0 0 0"
        rpy="0 0 0" />
      <geometry>
        <mesh
          filename="package://kraft_arm_description/meshes/NHTKtaft/NHT_Drawer.STL" />
      </geometry>
      <material
        name="">
        <color
          rgba="0.752941176470588 0.752941176470588 0.752941176470588 1" />
      </material>
    </visual>
    <collision>
      <origin
        xyz="0 0 0"
        rpy="0 0 0" />
      <geometry>
        <mesh
          filename="package://kraft_arm_description/meshes/NHTKtaft/NHT_Drawer.STL" />
      </geometry>
    </collision>
  </link>
</robot>
